\relax 
\catcode`"\active
\gdef\pointsofq@i{1}
\gdef\bonuspointsofq@i{0}
\gdef\pointsofq@ii{1}
\gdef\bonuspointsofq@ii{0}
\select@language{brazil}
\@writefile{toc}{\select@language{brazil}}
\@writefile{lof}{\select@language{brazil}}
\@writefile{lot}{\select@language{brazil}}
\PgInfo{question@1}{1}
\PgInfo{question1@object1}{1}
\newlabel{question@1}{{1}{1}}
\newlabel{firstpoints@onpage@1}{{1}{1}}
\PgInfo{question@2}{1}
\PgInfo{question2@object1}{1}
\newlabel{question@2}{{2}{1}}
\PgInfo{question@3}{1}
\PgInfo{question3@object1}{1}
\newlabel{question@3}{{3}{1}}
\@writefile{lol}{\contentsline {lstlisting}{\numberline {1}Solu\IeC {\c c}\IeC {\~a}o 1}{1}}
\@writefile{lol}{\contentsline {lstlisting}{\numberline {2}Solu\IeC {\c c}\IeC {\~a}o 2}{1}}
\gdef\pointsofq@iii{1}
\gdef\bonuspointsofq@iii{0}
\gdef\pointsonpage@i{3}
\gdef\pointsofq@iv{1}
\gdef\bonuspointsofq@iv{0}
\PgInfo{question@4}{2}
\PgInfo{question4@object1}{2}
\newlabel{question@4}{{4}{2}}
\newlabel{firstpoints@onpage@2}{{4}{2}}
\PgInfo{question@5}{2}
\PgInfo{question5@object1}{2}
\newlabel{question@5}{{5}{2}}
\gdef\pointsofq@v{1}
\gdef\bonuspointsofq@v{0}
\gdef\exam@lastpage{3}
\gdef\exam@numpoints{5}
\gdef\exam@numbonuspoints{0}
\gdef\exam@numquestions{5}
\gdef\exam@numparts{0}
\gdef\exam@numsubparts{0}
\gdef\exam@numsubsubparts{0}
\gdef\pointsonpage@ii{2}
\gdef\lastpage@withpoints{2}
\gdef\lastpage@withbonuspoints{0}
