\beamer@endinputifotherversion {3.10pt}
\select@language {brazil}
\beamer@sectionintoc {1}{Shell Script}{3}{0}{1}
\beamer@sectionintoc {2}{Alguns Conceitos Importantes}{14}{0}{2}
\beamer@subsectionintoc {2}{1}{Exerc\IeC {\'\i }cios}{36}{0}{2}
