\relax 
\@writefile{toc}{\beamer@sectionintoc {1}{Shell Script}{3}{0}{1}}
\@writefile{nav}{\headcommand {\sectionentry {1}{Shell Script}{3}{Shell Script}{0}}}
\@writefile{nav}{\headcommand {\beamer@sectionpages {1}{2}}}
\@writefile{nav}{\headcommand {\beamer@subsectionpages {1}{2}}}
\@writefile{nav}{\headcommand {\slideentry {1}{0}{3}{3/3}{}{0}}}
\@writefile{nav}{\headcommand {\beamer@framepages {3}{3}}}
\@writefile{nav}{\headcommand {\slideentry {1}{0}{4}{4/4}{}{0}}}
\@writefile{nav}{\headcommand {\beamer@framepages {4}{4}}}
\@writefile{nav}{\headcommand {\slideentry {1}{0}{5}{5/5}{}{0}}}
\@writefile{nav}{\headcommand {\beamer@framepages {5}{5}}}
\@writefile{nav}{\headcommand {\slideentry {1}{0}{5}{5/6}{}{0}}}
\@writefile{nav}{\headcommand {\beamer@framepages {5}{6}}}
\@writefile{nav}{\headcommand {\slideentry {1}{0}{5}{5/7}{}{0}}}
\@writefile{nav}{\headcommand {\beamer@framepages {5}{7}}}
\@writefile{nav}{\headcommand {\slideentry {1}{0}{6}{8/8}{}{0}}}
\@writefile{nav}{\headcommand {\beamer@framepages {8}{8}}}
\@writefile{nav}{\headcommand {\slideentry {1}{0}{7}{9/9}{}{0}}}
\@writefile{nav}{\headcommand {\beamer@framepages {9}{9}}}
\@writefile{nav}{\headcommand {\slideentry {1}{0}{7}{9/10}{}{0}}}
\@writefile{nav}{\headcommand {\beamer@framepages {9}{10}}}
\@writefile{nav}{\headcommand {\slideentry {1}{0}{7}{9/11}{}{0}}}
\@writefile{nav}{\headcommand {\beamer@framepages {9}{11}}}
\@writefile{nav}{\headcommand {\slideentry {1}{0}{7}{9/12}{}{0}}}
\@writefile{nav}{\headcommand {\beamer@framepages {9}{12}}}
\@writefile{nav}{\headcommand {\slideentry {1}{0}{8}{13/13}{}{0}}}
\@writefile{nav}{\headcommand {\beamer@framepages {13}{13}}}
\@writefile{toc}{\beamer@sectionintoc {2}{Alguns Conceitos Importantes}{14}{0}{2}}
\@writefile{nav}{\headcommand {\sectionentry {2}{Alguns Conceitos Importantes}{14}{Alguns Conceitos Importantes}{0}}}
\@writefile{nav}{\headcommand {\beamer@sectionpages {3}{13}}}
\@writefile{nav}{\headcommand {\beamer@subsectionpages {3}{13}}}
\@writefile{nav}{\headcommand {\slideentry {2}{0}{9}{14/14}{}{0}}}
\@writefile{nav}{\headcommand {\beamer@framepages {14}{14}}}
\@writefile{nav}{\headcommand {\slideentry {2}{0}{9}{14/15}{}{0}}}
\@writefile{nav}{\headcommand {\beamer@framepages {14}{15}}}
\newlabel{table:nonlin}{{10}{16}{Alguns Conceitos Importantes\relax }{Doc-Start}{}}
\@writefile{snm}{\beamer@slide {table:nonlin}{16}}
\@writefile{nav}{\headcommand {\slideentry {2}{0}{10}{16/16}{}{0}}}
\@writefile{nav}{\headcommand {\beamer@framepages {16}{16}}}
\@writefile{nav}{\headcommand {\slideentry {2}{0}{10}{16/17}{}{0}}}
\@writefile{nav}{\headcommand {\beamer@framepages {16}{17}}}
\@writefile{nav}{\headcommand {\slideentry {2}{0}{10}{16/18}{}{0}}}
\@writefile{nav}{\headcommand {\beamer@framepages {16}{18}}}
\@writefile{nav}{\headcommand {\slideentry {2}{0}{10}{16/19}{}{0}}}
\@writefile{nav}{\headcommand {\beamer@framepages {16}{19}}}
\@writefile{nav}{\headcommand {\slideentry {2}{0}{11}{20/20}{}{0}}}
\@writefile{nav}{\headcommand {\beamer@framepages {20}{20}}}
\@writefile{nav}{\headcommand {\slideentry {2}{0}{12}{21/21}{}{0}}}
\@writefile{nav}{\headcommand {\beamer@framepages {21}{21}}}
\@writefile{nav}{\headcommand {\slideentry {2}{0}{13}{22/22}{}{0}}}
\@writefile{nav}{\headcommand {\beamer@framepages {22}{22}}}
\@writefile{nav}{\headcommand {\slideentry {2}{0}{13}{22/23}{}{0}}}
\@writefile{nav}{\headcommand {\beamer@framepages {22}{23}}}
\@writefile{nav}{\headcommand {\slideentry {2}{0}{14}{24/24}{}{0}}}
\@writefile{nav}{\headcommand {\beamer@framepages {24}{24}}}
\@writefile{nav}{\headcommand {\slideentry {2}{0}{15}{25/25}{}{0}}}
\@writefile{nav}{\headcommand {\beamer@framepages {25}{25}}}
\@writefile{nav}{\headcommand {\slideentry {2}{0}{16}{26/26}{}{0}}}
\@writefile{nav}{\headcommand {\beamer@framepages {26}{26}}}
\@writefile{nav}{\headcommand {\slideentry {2}{0}{16}{26/27}{}{0}}}
\@writefile{nav}{\headcommand {\beamer@framepages {26}{27}}}
\@writefile{nav}{\headcommand {\slideentry {2}{0}{16}{26/28}{}{0}}}
\@writefile{nav}{\headcommand {\beamer@framepages {26}{28}}}
\@writefile{nav}{\headcommand {\slideentry {2}{0}{16}{26/29}{}{0}}}
\@writefile{nav}{\headcommand {\beamer@framepages {26}{29}}}
\@writefile{nav}{\headcommand {\slideentry {2}{0}{16}{26/30}{}{0}}}
\@writefile{nav}{\headcommand {\beamer@framepages {26}{30}}}
\@writefile{nav}{\headcommand {\slideentry {2}{0}{16}{26/31}{}{0}}}
\@writefile{nav}{\headcommand {\beamer@framepages {26}{31}}}
\@writefile{nav}{\headcommand {\slideentry {2}{0}{16}{26/32}{}{0}}}
\@writefile{nav}{\headcommand {\beamer@framepages {26}{32}}}
\@writefile{nav}{\headcommand {\slideentry {2}{0}{16}{26/33}{}{0}}}
\@writefile{nav}{\headcommand {\beamer@framepages {26}{33}}}
\@writefile{nav}{\headcommand {\slideentry {2}{0}{16}{26/34}{}{0}}}
\@writefile{nav}{\headcommand {\beamer@framepages {26}{34}}}
\@writefile{nav}{\headcommand {\slideentry {2}{0}{16}{26/35}{}{0}}}
\@writefile{nav}{\headcommand {\beamer@framepages {26}{35}}}
\@writefile{toc}{\beamer@subsectionintoc {2}{1}{Exerc\IeC {\'\i }cios}{36}{0}{2}}
\@writefile{nav}{\headcommand {\beamer@subsectionentry {0}{2}{1}{36}{Exerc\IeC {\'\i }cios}}\headcommand {\beamer@subsectionpages {14}{35}}}
\@writefile{nav}{\headcommand {\slideentry {2}{1}{1}{36/36}{Exerc\IeC {\'\i }cios}{0}}}
\@writefile{nav}{\headcommand {\beamer@framepages {36}{36}}}
\@writefile{nav}{\headcommand {\slideentry {2}{1}{2}{37/37}{Exerc\IeC {\'\i }cios}{0}}}
\@writefile{nav}{\headcommand {\beamer@framepages {37}{37}}}
\@writefile{nav}{\headcommand {\slideentry {2}{1}{2}{37/38}{Exerc\IeC {\'\i }cios}{0}}}
\@writefile{nav}{\headcommand {\beamer@framepages {37}{38}}}
\@writefile{nav}{\headcommand {\slideentry {2}{1}{2}{37/39}{Exerc\IeC {\'\i }cios}{0}}}
\@writefile{nav}{\headcommand {\beamer@framepages {37}{39}}}
\@writefile{nav}{\headcommand {\slideentry {2}{1}{2}{37/40}{Exerc\IeC {\'\i }cios}{0}}}
\@writefile{nav}{\headcommand {\beamer@framepages {37}{40}}}
\@setckpt{shell}{
\setcounter{page}{41}
\setcounter{equation}{0}
\setcounter{enumi}{7}
\setcounter{enumii}{0}
\setcounter{enumiii}{0}
\setcounter{enumiv}{0}
\setcounter{footnote}{2}
\setcounter{mpfootnote}{0}
\setcounter{beamerpauses}{1}
\setcounter{bookmark@seq@number}{3}
\setcounter{lecture}{0}
\setcounter{part}{0}
\setcounter{section}{2}
\setcounter{subsection}{1}
\setcounter{subsubsection}{0}
\setcounter{subsectionslide}{2}
\setcounter{framenumber}{40}
\setcounter{figure}{0}
\setcounter{table}{0}
\setcounter{parentequation}{0}
\setcounter{theorem}{0}
\setcounter{lstnumber}{1}
\setcounter{section@level}{0}
\setcounter{lstlisting}{0}
}
