\BOOKMARK [2][]{Outline0.1}{Ger\352ncia de Processos}{}
\BOOKMARK [2][]{Outline0.2}{Ger\352ncia de Mem\363ria}{}
\BOOKMARK [2][]{Outline0.3}{Ger\352ncia de Arquivos}{}
\BOOKMARK [2][]{Outline0.4}{Ger\352ncia de I/O}{}
\BOOKMARK [2][]{Outline0.5}{Ger\352ncia de Seguran\347a}{}
