\beamer@endinputifotherversion {3.07pt}
\select@language {brazil}
\beamer@sectionintoc {1}{Ger\IeC {\^e}ncia de Processos}{2}{0}{1}
\beamer@sectionintoc {2}{Ger\IeC {\^e}ncia de Mem\IeC {\'o}ria}{3}{0}{2}
\beamer@sectionintoc {3}{Ger\IeC {\^e}ncia de Arquivos}{4}{0}{3}
\beamer@sectionintoc {4}{Ger\IeC {\^e}ncia de I/O}{32}{0}{4}
\beamer@sectionintoc {5}{Ger\IeC {\^e}ncia de Seguran\IeC {\c c}a}{33}{0}{5}
