\relax 
\@writefile{toc}{\beamer@sectionintoc {4}{Ger\IeC {\^e}ncia de I/O}{32}{0}{4}}
\@writefile{nav}{\headcommand {\sectionentry {4}{Ger\IeC {\^e}ncia de I/O}{32}{Ger\IeC {\^e}ncia de I/O}{0}}}
\@writefile{nav}{\headcommand {\beamer@sectionpages {4}{31}}}
\@writefile{nav}{\headcommand {\beamer@subsectionpages {4}{31}}}
\@writefile{nav}{\headcommand {\slideentry {4}{0}{14}{32/32}{}{0}}}
\@writefile{nav}{\headcommand {\beamer@framepages {32}{32}}}
\@setckpt{io}{
\setcounter{page}{33}
\setcounter{equation}{0}
\setcounter{enumi}{0}
\setcounter{enumii}{0}
\setcounter{enumiii}{0}
\setcounter{enumiv}{0}
\setcounter{footnote}{0}
\setcounter{mpfootnote}{0}
\setcounter{beamerpauses}{0}
\setcounter{lecture}{0}
\setcounter{part}{0}
\setcounter{section}{4}
\setcounter{subsection}{0}
\setcounter{subsubsection}{0}
\setcounter{subsectionslide}{14}
\setcounter{framenumber}{32}
\setcounter{figure}{2}
\setcounter{table}{0}
\setcounter{parentequation}{0}
\setcounter{theorem}{0}
\setcounter{lstnumber}{5}
\setcounter{section@level}{0}
\setcounter{lstlisting}{0}
}
