\relax 
\@writefile{toc}{\beamer@sectionintoc {1}{Ger\IeC {\^e}ncia de Processos}{2}{0}{1}}
\@writefile{nav}{\headcommand {\sectionentry {1}{Ger\IeC {\^e}ncia de Processos}{2}{Ger\IeC {\^e}ncia de Processos}{0}}}
\@writefile{nav}{\headcommand {\beamer@sectionpages {1}{1}}}
\@writefile{nav}{\headcommand {\beamer@subsectionpages {1}{1}}}
\@writefile{nav}{\headcommand {\slideentry {1}{0}{2}{2/2}{}{0}}}
\@writefile{nav}{\headcommand {\beamer@framepages {2}{2}}}
\@setckpt{processos}{
\setcounter{page}{3}
\setcounter{equation}{0}
\setcounter{enumi}{0}
\setcounter{enumii}{0}
\setcounter{enumiii}{0}
\setcounter{enumiv}{0}
\setcounter{footnote}{0}
\setcounter{mpfootnote}{0}
\setcounter{beamerpauses}{0}
\setcounter{lecture}{0}
\setcounter{part}{0}
\setcounter{section}{1}
\setcounter{subsection}{0}
\setcounter{subsubsection}{0}
\setcounter{subsectionslide}{2}
\setcounter{framenumber}{2}
\setcounter{figure}{0}
\setcounter{table}{0}
\setcounter{parentequation}{0}
\setcounter{theorem}{0}
\setcounter{lstnumber}{1}
\setcounter{section@level}{0}
\setcounter{lstlisting}{0}
}
