\relax 
\@writefile{toc}{\beamer@sectionintoc {5}{Ger\IeC {\^e}ncia de Seguran\IeC {\c c}a}{33}{0}{5}}
\@writefile{nav}{\headcommand {\sectionentry {5}{Ger\IeC {\^e}ncia de Seguran\IeC {\c c}a}{33}{Ger\IeC {\^e}ncia de Seguran\IeC {\c c}a}{0}}}
\@writefile{nav}{\headcommand {\beamer@sectionpages {32}{32}}}
\@writefile{nav}{\headcommand {\beamer@subsectionpages {32}{32}}}
\@writefile{nav}{\headcommand {\slideentry {5}{0}{15}{33/33}{}{0}}}
\@writefile{nav}{\headcommand {\beamer@framepages {33}{33}}}
\@setckpt{seguranca}{
\setcounter{page}{34}
\setcounter{equation}{0}
\setcounter{enumi}{0}
\setcounter{enumii}{0}
\setcounter{enumiii}{0}
\setcounter{enumiv}{0}
\setcounter{footnote}{0}
\setcounter{mpfootnote}{0}
\setcounter{beamerpauses}{0}
\setcounter{lecture}{0}
\setcounter{part}{0}
\setcounter{section}{5}
\setcounter{subsection}{0}
\setcounter{subsubsection}{0}
\setcounter{subsectionslide}{15}
\setcounter{framenumber}{33}
\setcounter{figure}{2}
\setcounter{table}{0}
\setcounter{parentequation}{0}
\setcounter{theorem}{0}
\setcounter{lstnumber}{5}
\setcounter{section@level}{0}
\setcounter{lstlisting}{0}
}
